---
http_interactions:
- request:
    method: get
    uri: https://api.w3.org/specifications?embed=true&items=2
    body:
      encoding: US-ASCII
      string: ''
    headers:
      User-Agent:
      - Faraday v2.13.2
  response:
    status:
      code: 200
      message: OK
    headers:
      date:
      - Tue, 08 Jul 2025 17:27:48 GMT
      content-type:
      - application/hal+json;version=1.0
      transfer-encoding:
      - chunked
      connection:
      - keep-alive
      cache-control:
      - public, s-maxage=900
      access-control-allow-origin:
      - "*"
      last-modified:
      - Tue, 08 Jul 2025 17:27:48 GMT
      cf-cache-status:
      - EXPIRED
      set-cookie:
      - __cf_bm=xfYcQNajQoYEuCFSXdyj8zEpWcatpulBYg2KkNJARX0-1751995668-1.0.1.1-0NjfM15LlTvnxqmRKLrdrXJ3I0TGWn8EUcpXGUQMfL7xWCA2LYOm5kePIN3HA88ThgN3zqBg8as.ItDaCKDP3OLnQyTSzs92kW0OrRCWr0Y;
        path=/; expires=Tue, 08-Jul-25 17:57:48 GMT; domain=.w3.org; HttpOnly; Secure;
        SameSite=None
      vary:
      - Accept-Encoding
      server:
      - cloudflare
      cf-ray:
      - 95c14b5cea708b4d-HKG
      alt-svc:
      - h3=":443"; ma=86400
    body:
      encoding: UTF-8
      string: |-
        {
            "page": 1,
            "limit": 2,
            "pages": 822,
            "total": 1644,
            "_links": {
                "specifications": [
                    {
                        "href": "https://api.w3.org/specifications/2dcontext",
                        "title": "HTML Canvas 2D Context"
                    },
                    {
                        "href": "https://api.w3.org/specifications/2dcontext2",
                        "title": "HTML Canvas 2D Context, Level 2"
                    }
                ],
                "self": {
                    "href": "https://api.w3.org/specifications?embed=1&page=1&items=2"
                },
                "first": {
                    "href": "https://api.w3.org/specifications?embed=1&page=1&items=2"
                },
                "last": {
                    "href": "https://api.w3.org/specifications?embed=1&page=822&items=2"
                },
                "next": {
                    "href": "https://api.w3.org/specifications?embed=1&page=2&items=2"
                }
            },
            "_embedded": {
                "specifications": [
                    {
                        "shortlink": "https://www.w3.org/TR/2dcontext/",
                        "description": "<p>Defines the flat cartesian surface that is the context for the canvas element (for drawing). </p>",
                        "title": "HTML Canvas 2D Context",
                        "shortname": "2dcontext",
                        "_links": {
                            "self": {
                                "href": "https://api.w3.org/specifications/2dcontext"
                            },
                            "version-history": {
                                "href": "https://api.w3.org/specifications/2dcontext/versions"
                            },
                            "first-version": {
                                "href": "https://api.w3.org/specifications/2dcontext/versions/20100304",
                                "title": "Working Draft"
                            },
                            "latest-version": {
                                "href": "https://api.w3.org/specifications/2dcontext/versions/20210128",
                                "title": "Retired"
                            },
                            "series": {
                                "href": "https://api.w3.org/specification-series/2dcontext"
                            }
                        }
                    },
                    {
                        "shortlink": "https://www.w3.org/TR/2dcontext2/",
                        "description": "<p>This specification defines the 2D Context, Level 2 for the HTML canvas element. The 2D Context provides objects, methods, and properties to draw and manipulate graphics on a canvas drawing surface.</p>",
                        "title": "HTML Canvas 2D Context, Level 2",
                        "shortname": "2dcontext2",
                        "series-version": "2",
                        "_links": {
                            "self": {
                                "href": "https://api.w3.org/specifications/2dcontext2"
                            },
                            "version-history": {
                                "href": "https://api.w3.org/specifications/2dcontext2/versions"
                            },
                            "first-version": {
                                "href": "https://api.w3.org/specifications/2dcontext2/versions/20121217",
                                "title": "Working Draft"
                            },
                            "latest-version": {
                                "href": "https://api.w3.org/specifications/2dcontext2/versions/20150929",
                                "title": "Retired"
                            },
                            "series": {
                                "href": "https://api.w3.org/specification-series/2dcontext"
                            }
                        }
                    }
                ]
            }
        }
  recorded_at: Tue, 08 Jul 2025 17:27:48 GMT
recorded_with: VCR 6.3.1
