---
http_interactions:
- request:
    method: get
    uri: https://api.w3.org/affiliations?items=3&page=1
    body:
      encoding: US-ASCII
      string: ''
    headers:
      User-Agent:
      - Faraday v2.13.1
  response:
    status:
      code: 200
      message: OK
    headers:
      date:
      - Thu, 03 Jul 2025 14:11:03 GMT
      content-type:
      - application/hal+json;version=1.0
      transfer-encoding:
      - chunked
      connection:
      - keep-alive
      cache-control:
      - max-age=900, public, s-maxage=900
      last-modified:
      - Thu, 03 Jul 2025 07:48:06 GMT
      access-control-allow-origin:
      - "*"
      cf-cache-status:
      - HIT
      age:
      - '146'
      set-cookie:
      - __cf_bm=S2K7sYA1tU_Y0oHlAxYT4otm4YdWDO2yNmdy9kYkF8k-1751551863-1.0.1.1-jVhgPqHYbJgkjDkwyn.o4HzSsku148Vq8760aAlElXudGUo_CjmwZ4Ns8dSi6kSpwIUKZBBDlUhlkxDjxxN5Si4J5se3RAn_yjkW.bRA62g;
        path=/; expires=Thu, 03-Jul-25 14:41:03 GMT; domain=.w3.org; HttpOnly; Secure;
        SameSite=None
      vary:
      - Accept-Encoding
      server:
      - cloudflare
      cf-ray:
      - 9596f84c0fefe2e4-HKG
      alt-svc:
      - h3=":443"; ma=86400
    body:
      encoding: UTF-8
      string: |-
        {
            "page": 1,
            "limit": 3,
            "pages": 5435,
            "total": 16304,
            "_links": {
                "affiliations": [
                    {
                        "href": "https://api.w3.org/affiliations/1001",
                        "title": "Framkom (Forskningsaktiebolaget Medie-och Kommunikationsteknik)"
                    },
                    {
                        "href": "https://api.w3.org/affiliations/1003",
                        "title": "BackWeb Technologies, Inc."
                    },
                    {
                        "href": "https://api.w3.org/affiliations/1005",
                        "title": "Bull S.A."
                    }
                ],
                "self": {
                    "href": "https://api.w3.org/affiliations?page=1&items=3"
                },
                "first": {
                    "href": "https://api.w3.org/affiliations?page=1&items=3"
                },
                "last": {
                    "href": "https://api.w3.org/affiliations?page=5435&items=3"
                },
                "next": {
                    "href": "https://api.w3.org/affiliations?page=2&items=3"
                }
            }
        }
  recorded_at: Thu, 03 Jul 2025 14:11:03 GMT
recorded_with: VCR 6.3.1
