---
http_interactions:
- request:
    method: get
    uri: https://api.w3.org/specifications?items=5&page=1
    body:
      encoding: US-ASCII
      string: ''
    headers:
      User-Agent:
      - Faraday v2.13.1
  response:
    status:
      code: 200
      message: OK
    headers:
      date:
      - Thu, 03 Jul 2025 14:11:04 GMT
      content-type:
      - application/hal+json;version=1.0
      transfer-encoding:
      - chunked
      connection:
      - keep-alive
      cache-control:
      - public, s-maxage=900
      access-control-allow-origin:
      - "*"
      last-modified:
      - Thu, 03 Jul 2025 14:07:50 GMT
      cf-cache-status:
      - HIT
      age:
      - '194'
      set-cookie:
      - __cf_bm=TbBWvxlKTPUpD2.jBj0G38PY25NooaTY8B4KL9g8mlc-1751551864-1.0.1.1-biYKV0IcOnZBiB3IcHiUu7ktN3XYkZjPtv1mfA01DkydiPSeohlSCb1YA7LCteHITGwoYKlbHTgYIOcTWyqeYlN9yBu8zNoE02C4wApk5gs;
        path=/; expires=Thu, 03-Jul-25 14:41:04 GMT; domain=.w3.org; HttpOnly; Secure;
        SameSite=None
      vary:
      - Accept-Encoding
      server:
      - cloudflare
      cf-ray:
      - 9596f84e3935e636-HKG
      alt-svc:
      - h3=":443"; ma=86400
    body:
      encoding: UTF-8
      string: |-
        {
            "page": 1,
            "limit": 5,
            "pages": 329,
            "total": 1643,
            "_links": {
                "specifications": [
                    {
                        "href": "https://api.w3.org/specifications/cors",
                        "title": "Cross-Origin Resource Sharing"
                    },
                    {
                        "href": "https://api.w3.org/specifications/2dcontext",
                        "title": "HTML Canvas 2D Context"
                    },
                    {
                        "href": "https://api.w3.org/specifications/2dcontext2",
                        "title": "HTML Canvas 2D Context, Level 2"
                    },
                    {
                        "href": "https://api.w3.org/specifications/abstract-ui",
                        "title": "MBUI - Abstract User Interface Models"
                    },
                    {
                        "href": "https://api.w3.org/specifications/accelerometer",
                        "title": "Accelerometer"
                    }
                ],
                "self": {
                    "href": "https://api.w3.org/specifications?page=1&items=5"
                },
                "first": {
                    "href": "https://api.w3.org/specifications?page=1&items=5"
                },
                "last": {
                    "href": "https://api.w3.org/specifications?page=329&items=5"
                },
                "next": {
                    "href": "https://api.w3.org/specifications?page=2&items=5"
                }
            }
        }
  recorded_at: Thu, 03 Jul 2025 14:11:04 GMT
recorded_with: VCR 6.3.1
