---
http_interactions:
- request:
    method: get
    uri: https://api.w3.org/groups/109735
    body:
      encoding: US-ASCII
      string: ''
    headers:
      User-Agent:
      - Faraday v2.13.1
  response:
    status:
      code: 200
      message: OK
    headers:
      date:
      - Thu, 03 Jul 2025 14:11:04 GMT
      content-type:
      - application/hal+json;version=1.0
      transfer-encoding:
      - chunked
      connection:
      - keep-alive
      cache-control:
      - max-age=900, public, s-maxage=900
      last-modified:
      - Mon, 24 Sep 2018 12:58:10 GMT
      access-control-allow-origin:
      - "*"
      cf-cache-status:
      - HIT
      age:
      - '0'
      set-cookie:
      - __cf_bm=2oG9_4OCjZ93k_qo6rrA0qVghFsb_EXd.0STGssPxvU-1751551864-1.0.1.1-3Lpv03vZS2P2fmmiM1gJhI86iJ39a.1zPEz3rIweNR7m7KlhZa0Ee3ijZXh.z.DyBIFUcEN5tV41rqKnVtjhiq66MRmDDEUG14FxZPaC29U;
        path=/; expires=Thu, 03-Jul-25 14:41:04 GMT; domain=.w3.org; HttpOnly; Secure;
        SameSite=None
      vary:
      - Accept-Encoding
      server:
      - cloudflare
      cf-ray:
      - 9596f8539f4d6e63-HKG
      alt-svc:
      - h3=":443"; ma=86400
    body:
      encoding: UTF-8
      string: |-
        {
            "id": 109735,
            "name": "Immersive Web Working Group",
            "is_closed": false,
            "description": "The mission of the Immersive Web Working Group is to help bring high-performance Virtual Reality (VR) and Augmented Reality (AR) (collectively known as XR) to the open Web via APIs to interact with XR devices and sensors in browsers.",
            "shortname": "immersive-web",
            "discr": "w3cgroup",
            "_links": {
                "self": {
                    "href": "https://api.w3.org/groups/wg/immersive-web"
                },
                "homepage": {
                    "href": "https://www.w3.org/immersive-web/"
                },
                "users": {
                    "href": "https://api.w3.org/groups/wg/immersive-web/users"
                },
                "services": {
                    "href": "https://api.w3.org/groups/wg/immersive-web/services"
                },
                "specifications": {
                    "href": "https://api.w3.org/groups/wg/immersive-web/specifications"
                },
                "chairs": {
                    "href": "https://api.w3.org/groups/wg/immersive-web/chairs"
                },
                "team-contacts": {
                    "href": "https://api.w3.org/groups/wg/immersive-web/teamcontacts"
                },
                "charters": {
                    "href": "https://api.w3.org/groups/wg/immersive-web/charters"
                },
                "active-charter": {
                    "href": "https://api.w3.org/groups/wg/immersive-web/charters/514"
                },
                "join": {
                    "href": "https://www.w3.org/groups/wg/immersive-web/join"
                },
                "pp-status": {
                    "href": "https://www.w3.org/groups/wg/immersive-web/ipr"
                },
                "participations": {
                    "href": "https://api.w3.org/groups/wg/immersive-web/participations"
                }
            },
            "type": "working group",
            "start-date": "2018-09-24",
            "end-date": "2026-09-25"
        }
  recorded_at: Thu, 03 Jul 2025 14:11:04 GMT
- request:
    method: get
    uri: https://api.w3.org/groups/109735/users?items=3&page=1
    body:
      encoding: US-ASCII
      string: ''
    headers:
      User-Agent:
      - Faraday v2.13.1
  response:
    status:
      code: 200
      message: OK
    headers:
      date:
      - Thu, 03 Jul 2025 14:11:45 GMT
      content-type:
      - application/hal+json;version=1.0
      transfer-encoding:
      - chunked
      connection:
      - keep-alive
      cache-control:
      - max-age=900, public, s-maxage=900
      last-modified:
      - Mon, 16 Jun 2025 21:25:31 GMT
      access-control-allow-origin:
      - "*"
      cf-cache-status:
      - MISS
      set-cookie:
      - __cf_bm=70DqbR5cbvPDNNjH0YZkck.sx4CZQHydVA5fz9jDNCU-1751551905-1.0.1.1-ArUMH40sF_00K5cmkTVJuk0bTajG0WvUFK5JejBddCqW71qzT.74AsHh_g.lRZrzIoFPzb3k0IVMR7vQtcNs6nsEkPmAlb7seEPBXhdBZD4;
        path=/; expires=Thu, 03-Jul-25 14:41:45 GMT; domain=.w3.org; HttpOnly; Secure;
        SameSite=None
      vary:
      - Accept-Encoding
      server:
      - cloudflare
      cf-ray:
      - 9596f94c5e6cd173-HKG
      alt-svc:
      - h3=":443"; ma=86400
    body:
      encoding: UTF-8
      string: |-
        {
            "page": 1,
            "limit": 3,
            "pages": 27,
            "total": 79,
            "_links": {
                "up": {
                    "href": "https://api.w3.org/groups/109735"
                },
                "users": [
                    {
                        "href": "https://api.w3.org/users/9o1jsmhi8ysk088w0k4g00wsssk4c8c",
                        "title": "Muadh Al Kalbani",
                        "former": false
                    },
                    {
                        "href": "https://api.w3.org/users/rqjspzlmiq8c0kk8goos4c480w8wccs",
                        "title": "Matthew Atkinson",
                        "former": false
                    },
                    {
                        "href": "https://api.w3.org/users/32hnccz98a68sk0kcog8c4wo4sgckkw",
                        "title": "Ashwin Balasubramaniyan",
                        "former": false
                    }
                ],
                "self": {
                    "href": "https://api.w3.org/groups/109735/users?page=1&items=3"
                },
                "first": {
                    "href": "https://api.w3.org/groups/109735/users?page=1&items=3"
                },
                "last": {
                    "href": "https://api.w3.org/groups/109735/users?page=27&items=3"
                },
                "next": {
                    "href": "https://api.w3.org/groups/109735/users?page=2&items=3"
                }
            }
        }
  recorded_at: Thu, 03 Jul 2025 14:11:45 GMT
recorded_with: VCR 6.3.1
