---
http_interactions:
- request:
    method: get
    uri: https://api.w3.org/specifications?items=2
    body:
      encoding: US-ASCII
      string: ''
    headers:
      User-Agent:
      - Faraday v2.13.2
  response:
    status:
      code: 200
      message: OK
    headers:
      date:
      - Tue, 08 Jul 2025 06:59:06 GMT
      content-type:
      - application/hal+json;version=1.0
      transfer-encoding:
      - chunked
      connection:
      - keep-alive
      cache-control:
      - public, s-maxage=900
      access-control-allow-origin:
      - "*"
      last-modified:
      - Tue, 08 Jul 2025 06:59:06 GMT
      cf-cache-status:
      - EXPIRED
      set-cookie:
      - __cf_bm=MYAi0_Ve6FmQEijxyV7dLevUzTTxx.C8EQGVytJyy1E-1751957946-1.0.1.1-pr6NIkqxRupwjclcDrAaXGzfG7pbAdeTX._z7JV243eVrGinkM4pg0FaenIgj3kk4a9TV0ITttwoXgr7nSMs5NIwAAPVlE5IQbXv9OneTQ8;
        path=/; expires=Tue, 08-Jul-25 07:29:06 GMT; domain=.w3.org; HttpOnly; Secure;
        SameSite=None
      vary:
      - Accept-Encoding
      server:
      - cloudflare
      cf-ray:
      - 95bdb26ddb95da0d-HKG
      alt-svc:
      - h3=":443"; ma=86400
    body:
      encoding: UTF-8
      string: |-
        {
            "page": 1,
            "limit": 2,
            "pages": 822,
            "total": 1644,
            "_links": {
                "specifications": [
                    {
                        "href": "https://api.w3.org/specifications/2dcontext",
                        "title": "HTML Canvas 2D Context"
                    },
                    {
                        "href": "https://api.w3.org/specifications/2dcontext2",
                        "title": "HTML Canvas 2D Context, Level 2"
                    }
                ],
                "self": {
                    "href": "https://api.w3.org/specifications?page=1&items=2"
                },
                "first": {
                    "href": "https://api.w3.org/specifications?page=1&items=2"
                },
                "last": {
                    "href": "https://api.w3.org/specifications?page=822&items=2"
                },
                "next": {
                    "href": "https://api.w3.org/specifications?page=2&items=2"
                }
            }
        }
  recorded_at: Tue, 08 Jul 2025 06:59:06 GMT
- request:
    method: get
    uri: https://api.w3.org/specifications/2dcontext
    body:
      encoding: US-ASCII
      string: ''
    headers:
      User-Agent:
      - Faraday v2.13.2
  response:
    status:
      code: 200
      message: OK
    headers:
      date:
      - Tue, 08 Jul 2025 06:59:07 GMT
      content-type:
      - application/hal+json;version=1.0
      transfer-encoding:
      - chunked
      connection:
      - keep-alive
      cache-control:
      - public, s-maxage=900
      access-control-allow-origin:
      - "*"
      last-modified:
      - Tue, 08 Jul 2025 06:59:07 GMT
      cf-cache-status:
      - EXPIRED
      set-cookie:
      - __cf_bm=1mymILMZMhGp_55_QFYabO8Sc4F2oVBRNqh4f98mfcw-1751957947-1.0.1.1-Lux67twrObWQeasieusJ3KfQATPn_YtUckmlXlHl03iO0ISwZ53T6SDNm0Jdf2rMLXaD12OlmU_UzpxlcjeMnGbspIj5vzJKQAyYiJjTfo0;
        path=/; expires=Tue, 08-Jul-25 07:29:07 GMT; domain=.w3.org; HttpOnly; Secure;
        SameSite=None
      vary:
      - Accept-Encoding
      server:
      - cloudflare
      cf-ray:
      - 95bdb27068dd0514-HKG
      alt-svc:
      - h3=":443"; ma=86400
    body:
      encoding: UTF-8
      string: |-
        {
            "shortlink": "https://www.w3.org/TR/2dcontext/",
            "description": "<p>Defines the flat cartesian surface that is the context for the canvas element (for drawing). </p>",
            "title": "HTML Canvas 2D Context",
            "shortname": "2dcontext",
            "_links": {
                "self": {
                    "href": "https://api.w3.org/specifications/2dcontext"
                },
                "version-history": {
                    "href": "https://api.w3.org/specifications/2dcontext/versions"
                },
                "first-version": {
                    "href": "https://api.w3.org/specifications/2dcontext/versions/20100304",
                    "title": "Working Draft"
                },
                "latest-version": {
                    "href": "https://api.w3.org/specifications/2dcontext/versions/20210128",
                    "title": "Retired"
                },
                "series": {
                    "href": "https://api.w3.org/specification-series/2dcontext"
                }
            }
        }
  recorded_at: Tue, 08 Jul 2025 06:59:06 GMT
- request:
    method: get
    uri: https://api.w3.org/specifications?embed=true&items=2
    body:
      encoding: US-ASCII
      string: ''
    headers:
      User-Agent:
      - Faraday v2.13.2
  response:
    status:
      code: 200
      message: OK
    headers:
      date:
      - Tue, 08 Jul 2025 06:59:07 GMT
      content-type:
      - application/hal+json;version=1.0
      transfer-encoding:
      - chunked
      connection:
      - keep-alive
      cache-control:
      - public, s-maxage=900
      access-control-allow-origin:
      - "*"
      last-modified:
      - Tue, 08 Jul 2025 06:59:06 GMT
      cf-cache-status:
      - HIT
      age:
      - '1'
      set-cookie:
      - __cf_bm=vajkyVuY8187pMvrSeSwnrWJNWtKo5HjAWtzFaXBKi0-1751957947-1.0.1.1-WLHOORoD4B8NUs5aQDA7b06MkWXRTcd6QJFVqrD_28s8kWxt34jxbHgbsZknHH9r1tkrvgz_GEb2OSxtwfYSL8Zak01xcmGwOaPjrU0e79U;
        path=/; expires=Tue, 08-Jul-25 07:29:07 GMT; domain=.w3.org; HttpOnly; Secure;
        SameSite=None
      vary:
      - Accept-Encoding
      server:
      - cloudflare
      cf-ray:
      - 95bdb27299825cbc-HKG
      alt-svc:
      - h3=":443"; ma=86400
    body:
      encoding: UTF-8
      string: |-
        {
            "page": 1,
            "limit": 2,
            "pages": 822,
            "total": 1644,
            "_links": {
                "specifications": [
                    {
                        "href": "https://api.w3.org/specifications/2dcontext",
                        "title": "HTML Canvas 2D Context"
                    },
                    {
                        "href": "https://api.w3.org/specifications/2dcontext2",
                        "title": "HTML Canvas 2D Context, Level 2"
                    }
                ],
                "self": {
                    "href": "https://api.w3.org/specifications?embed=1&page=1&items=2"
                },
                "first": {
                    "href": "https://api.w3.org/specifications?embed=1&page=1&items=2"
                },
                "last": {
                    "href": "https://api.w3.org/specifications?embed=1&page=822&items=2"
                },
                "next": {
                    "href": "https://api.w3.org/specifications?embed=1&page=2&items=2"
                }
            },
            "_embedded": {
                "specifications": [
                    {
                        "shortlink": "https://www.w3.org/TR/2dcontext/",
                        "description": "<p>Defines the flat cartesian surface that is the context for the canvas element (for drawing). </p>",
                        "title": "HTML Canvas 2D Context",
                        "shortname": "2dcontext",
                        "_links": {
                            "self": {
                                "href": "https://api.w3.org/specifications/2dcontext"
                            },
                            "version-history": {
                                "href": "https://api.w3.org/specifications/2dcontext/versions"
                            },
                            "first-version": {
                                "href": "https://api.w3.org/specifications/2dcontext/versions/20100304",
                                "title": "Working Draft"
                            },
                            "latest-version": {
                                "href": "https://api.w3.org/specifications/2dcontext/versions/20210128",
                                "title": "Retired"
                            },
                            "series": {
                                "href": "https://api.w3.org/specification-series/2dcontext"
                            }
                        }
                    },
                    {
                        "shortlink": "https://www.w3.org/TR/2dcontext2/",
                        "description": "<p>This specification defines the 2D Context, Level 2 for the HTML canvas element. The 2D Context provides objects, methods, and properties to draw and manipulate graphics on a canvas drawing surface.</p>",
                        "title": "HTML Canvas 2D Context, Level 2",
                        "shortname": "2dcontext2",
                        "series-version": "2",
                        "_links": {
                            "self": {
                                "href": "https://api.w3.org/specifications/2dcontext2"
                            },
                            "version-history": {
                                "href": "https://api.w3.org/specifications/2dcontext2/versions"
                            },
                            "first-version": {
                                "href": "https://api.w3.org/specifications/2dcontext2/versions/20121217",
                                "title": "Working Draft"
                            },
                            "latest-version": {
                                "href": "https://api.w3.org/specifications/2dcontext2/versions/20150929",
                                "title": "Retired"
                            },
                            "series": {
                                "href": "https://api.w3.org/specification-series/2dcontext"
                            }
                        }
                    }
                ]
            }
        }
  recorded_at: Tue, 08 Jul 2025 06:59:07 GMT
recorded_with: VCR 6.3.1
